6 6 1 1 1 1 1 1 6 6 6 6 6 6 6 6 6 6 6

6 6 1 0 4 4 5 1 6 6 6 6 6 6 6 6 6 6 6

6 6 1 0 2 2 0 1 6 6 6 6 6 6 6 6 6 6 6

6 6 1 1 0 1 1 1 6 6 6 6 6 6 6 6 6 6 6

6 6 6 1 0 1 6 6 6 6 6 6 6 6 6 6 6 6 6

6 6 6 1 0 1 6 6 6 6 6 6 6 6 6 6 6 6 6

1 1 1 1 0 1 6 6 6 6 6 6 6 6 6 6 6 6 6

1 0 0 0 0 1 1 6 6 6 6 6 6 6 6 6 6 6 6

1 0 1 0 0 0 1 6 6 6 6 6 6 6 6 6 6 6 6

1 0 0 0 1 0 1 6 6 6 6 6 6 6 6 6 6 6 6

1 1 1 0 0 0 1 6 6 6 6 6 6 6 6 6 6 6 6

6 6 1 1 1 1 1 6 6 6 6 6 6 6 6 6 6 6 6

6 6 6 6 6 6 6 6 6 6 6 6 6 6 6 6 6 6 6

6 6 6 6 6 6 6 6 6 6 6 6 6 6 6 6 6 6 6

6 6 6 6 6 6 6 6 6 6 6 6 6 6 6 6 6 6 6