6 6 6 6 6 6 6 6 6 6 1 1 1 1 6 6 6 6 6

6 6 6 6 6 1 1 1 1 0 1 0 0 1 6 6 6 6 6

6 6 6 1 1 1 0 5 1 1 1 2 0 1 6 6 6 6 6

6 6 1 1 0 0 0 0 0 0 2 0 0 1 6 6 6 6 6

6 1 1 0 0 2 0 2 2 1 1 0 1 1 6 6 6 6 6

6 1 0 0 1 2 1 1 0 0 0 0 0 1 6 6 6 6 6

6 1 0 1 0 2 0 2 2 0 1 0 1 1 1 6 6 6 6

6 1 0 0 0 2 0 1 0 0 1 0 2 0 1 1 1 1 1

1 1 1 1 0 0 0 0 1 0 0 2 2 0 1 0 0 0 1

1 1 1 1 0 1 1 0 2 0 0 0 0 0 0 0 0 0 1

1 4 0 0 0 0 1 1 1 0 0 1 1 1 1 1 1 1 1

1 4 4 0 4 4 1 6 1 1 1 1 6 6 6 6 6 6 6

1 4 4 4 1 4 1 6 6 6 6 6 6 6 6 6 6 6 6

1 4 4 4 4 4 1 6 6 6 6 6 6 6 6 6 6 6 6

1 1 1 1 1 1 1 6 6 6 6 6 6 6 6 6 6 6 6